<?xml version="1.0" encoding="utf-8"?>
<!-- Generator: Adobe Illustrator 17.1.0, SVG Export Plug-In . SVG Version: 6.00 Build 0)  -->
<!DOCTYPE svg PUBLIC "-//W3C//DTD SVG 1.1//EN" "http://www.w3.org/Graphics/SVG/1.1/DTD/svg11.dtd">
<svg version="1.1" id="Capa_1" xmlns="http://www.w3.org/2000/svg" xmlns:xlink="http://www.w3.org/1999/xlink" x="0px" y="0px"
	 viewBox="0 0 118.7 110" enable-background="new 0 0 118.7 110" xml:space="preserve">
<g>
	<circle fill="#1F3664" cx="40.3" cy="42" r="20.2"/>
	<path fill="#1F3664" d="M79.6,109c0-21.7-17.6-39.3-39.3-39.3S1,87.3,1,109H79.6z"/>
	<path fill="#FFFFFF" d="M80.6,110H0v-1c0-22.2,18.1-40.3,40.3-40.3S80.6,86.8,80.6,109V110z M2,108h76.5
		C78,87.4,61.1,70.7,40.3,70.7S2.5,87.4,2,108z"/>
	<circle fill="#1F3664" cx="86.8" cy="56.3" r="15.9"/>
	<path fill="#1F3664" d="M117.7,109c0-17.1-13.8-30.9-30.9-30.9S55.9,91.9,55.9,109H117.7z"/>
	<path fill="#FFFFFF" d="M118.7,110H54.9v-1c0-17.6,14.3-31.9,31.9-31.9c17.6,0,31.9,14.3,31.9,31.9V110z M56.9,108h59.8
		c-0.5-16-13.7-28.9-29.9-28.9S57.4,92,56.9,108z"/>
	<path fill="#1F3664" d="M114.2,0h-46c-2,0-3.7,1.7-3.7,3.7v13.5c0,2,1.7,3.7,3.7,3.7h2.2c0.2,1.7,0.2,3.7-0.9,5.1
		c0,0,6-2.6,8.7-5.1h35.9c2,0,3.7-1.7,3.7-3.7V3.7C117.9,1.7,116.3,0,114.2,0z"/>
</g>
</svg>
